FPGA/MACPipelined/MACPipelined.sim/sim_1/behav/xsim/simulate.log
Time resolution is 1 ps
Time: 0 | a =   0, b =   0, acc_in =                    0, acc_out =                    0
Time: 30000 | a =  36, b = 129, acc_in =                    0, acc_out =                 4644
Time: 50000 | a =   9, b =  99, acc_in =                 4644, acc_out =                 5535
Time: 70000 | a =  13, b = 141, acc_in =                 5535, acc_out =                 7368
Time: 90000 | a = 101, b =  18, acc_in =                 7368, acc_out =                 9186
Time: 110000 | a =   1, b =  13, acc_in =                 9186, acc_out =                 9199
Time: 130000 | a = 118, b =  61, acc_in =                 9199, acc_out =                16397
Time: 150000 | a = 237, b = 140, acc_in =                16397, acc_out =                49577
Time: 170000 | a = 249, b = 198, acc_in =                49577, acc_out =                98879
Time: 190000 | a = 197, b = 170, acc_in =                98879, acc_out =               132369
Time: 210000 | a = 229, b = 119, acc_in =               132369, acc_out =               159620
Time: 230000 | a =  18, b = 143, acc_in =               159620, acc_out =               162194
Time: 250000 | a = 242, b = 206, acc_in =               162194, acc_out =               212046
Time: 270000 | a = 232, b = 197, acc_in =               212046, acc_out =               257750
Time: 290000 | a =  92, b = 189, acc_in =               257750, acc_out =               275138
Time: 310000 | a =  45, b = 101, acc_in =               275138, acc_out =               279683
Time: 330000 | a =  99, b =  10, acc_in =               279683, acc_out =               280673
Time: 350000 | a = 128, b =  32, acc_in =               280673, acc_out =               284769
Time: 370000 | a = 170, b = 157, acc_in =               284769, acc_out =               311459
Time: 390000 | a = 150, b =  19, acc_in =               311459, acc_out =               314309
Time: 410000 | a =  13, b =  83, acc_in =               314309, acc_out =               315388
Time: 430000 | a = 107, b = 213, acc_in =               315388, acc_out =               338179
Time: 450000 | a =   2, b = 174, acc_in =               338179, acc_out =               338527
Time: 470000 | a =  29, b = 207, acc_in =               338527, acc_out =               344530
Time: 490000 | a =  35, b =  10, acc_in =               344530, acc_out =               344880
Time: 510000 | a = 202, b =  60, acc_in =               344880, acc_out =               357000
Time: 530000 | a = 242, b = 138, acc_in =               357000, acc_out =               390396
Time: 550000 | a =  65, b = 216, acc_in =               390396, acc_out =               404436
Time: 570000 | a = 120, b = 137, acc_in =               404436, acc_out =               420876
Time: 590000 | a = 235, b = 182, acc_in =               420876, acc_out =               463646
Time: 610000 | a = 198, b = 174, acc_in =               463646, acc_out =               498098
Time: 630000 | a = 188, b =  42, acc_in =               498098, acc_out =               505994
Time: 650000 | a =  11, b = 113, acc_in =               505994, acc_out =               507237
Time: 670000 | a = 133, b =  79, acc_in =               507237, acc_out =               517744
Time: 690000 | a =  59, b =  58, acc_in =               517744, acc_out =               521166
Time: 710000 | a = 126, b =  21, acc_in =               521166, acc_out =               523812
Time: 730000 | a = 241, b = 217, acc_in =               523812, acc_out =               576109
Time: 750000 | a =  98, b =  76, acc_in =               576109, acc_out =               583557
Time: 770000 | a = 159, b = 143, acc_in =               583557, acc_out =               606294
Time: 790000 | a = 248, b = 183, acc_in =               606294, acc_out =               651678
Time: 810000 | a = 159, b =  92, acc_in =               651678, acc_out =               666306
Time: 830000 | a =  91, b = 137, acc_in =               666306, acc_out =               678773
Time: 850000 | a =  73, b = 208, acc_in =               678773, acc_out =               693957
Time: 870000 | a = 215, b =  81, acc_in =               693957, acc_out =               711372
Time: 890000 | a = 150, b =  12, acc_in =               711372, acc_out =               713172
Time: 910000 | a = 194, b = 200, acc_in =               713172, acc_out =               751972
Time: 930000 | a = 119, b =  61, acc_in =               751972, acc_out =               759231
Time: 950000 | a =  18, b = 126, acc_in =               759231, acc_out =               761499
Time: 970000 | a = 109, b =  57, acc_in =               761499, acc_out =               767712
Time: 990000 | a =  31, b = 211, acc_in =               767712, acc_out =               774253
Time: 1010000 | a = 133, b = 120, acc_in =               774253, acc_out =               790213
Time: 1030000 | a =  91, b =  73, acc_in =               790213, acc_out =               796856
Time: 1050000 | a =  63, b =  42, acc_in =               796856, acc_out =               799502
Time: 1070000 | a =  88, b = 134, acc_in =               799502, acc_out =               811294
Time: 1090000 | a = 142, b = 156, acc_in =               811294, acc_out =               833446
Time: 1110000 | a = 250, b =  38, acc_in =               833446, acc_out =               842946
Time: 1130000 | a = 115, b = 163, acc_in =               842946, acc_out =               861691
Time: 1150000 | a =  47, b = 179, acc_in =               861691, acc_out =               870104
Time: 1170000 | a =  95, b =  68, acc_in =               870104, acc_out =               876564
Time: 1190000 | a = 247, b = 203, acc_in =               876564, acc_out =               926705
Time: 1210000 | a = 230, b =  90, acc_in =               926705, acc_out =               947405
Time: 1230000 | a =  41, b = 237, acc_in =               947405, acc_out =               957122
Time: 1250000 | a = 218, b = 101, acc_in =               957122, acc_out =               979140
Time: 1270000 | a = 181, b = 223, acc_in =               979140, acc_out =              1019503
Time: 1290000 | a = 121, b =  68, acc_in =              1019503, acc_out =              1027731
Time: 1310000 | a = 208, b =  42, acc_in =              1027731, acc_out =              1036467
Time: 1330000 | a = 171, b =  14, acc_in =              1036467, acc_out =              1038861
Time: 1350000 | a = 220, b = 154, acc_in =              1038861, acc_out =              1072741
Time: 1370000 | a = 253, b = 195, acc_in =              1072741, acc_out =              1122076
Time: 1390000 | a =  86, b =  78, acc_in =              1122076, acc_out =              1128784
Time: 1410000 | a = 103, b =  10, acc_in =              1128784, acc_out =              1129814
Time: 1430000 | a = 182, b =  56, acc_in =              1129814, acc_out =              1140006
Time: 1450000 | a = 121, b = 184, acc_in =              1140006, acc_out =              1162270
Time: 1470000 | a = 148, b = 147, acc_in =              1162270, acc_out =              1184026
Time: 1490000 | a =   4, b =  89, acc_in =              1184026, acc_out =              1184382
Time: 1510000 | a = 219, b =  77, acc_in =              1184382, acc_out =              1201245
Time: 1530000 | a = 217, b = 109, acc_in =              1201245, acc_out =              1224898
Time: 1550000 | a = 118, b = 202, acc_in =              1224898, acc_out =              1248734
Time: 1570000 | a = 182, b = 149, acc_in =              1248734, acc_out =              1275852
Time: 1590000 | a =  70, b =   4, acc_in =              1275852, acc_out =              1276132
Time: 1610000 | a = 247, b = 105, acc_in =              1276132, acc_out =              1302067
Time: 1630000 | a = 180, b = 136, acc_in =              1302067, acc_out =              1326547
Time: 1650000 | a =  40, b =  45, acc_in =              1326547, acc_out =              1328347
Time: 1670000 | a = 199, b =  46, acc_in =              1328347, acc_out =              1337501
Time: 1690000 | a =   8, b =  28, acc_in =              1337501, acc_out =              1337725
Time: 1710000 | a = 253, b =  41, acc_in =              1337725, acc_out =              1348098
Time: 1730000 | a =  28, b = 134, acc_in =              1348098, acc_out =              1351850
Time: 1750000 | a = 218, b =  61, acc_in =              1351850, acc_out =              1365148
Time: 1770000 | a = 102, b = 112, acc_in =              1365148, acc_out =              1376572
Time: 1790000 | a = 115, b = 186, acc_in =              1376572, acc_out =              1397962
Time: 1810000 | a =  94, b = 250, acc_in =              1397962, acc_out =              1421462
Time: 1830000 | a = 213, b =  26, acc_in =              1421462, acc_out =              1427000
Time: 1850000 | a = 185, b =  55, acc_in =              1427000, acc_out =              1437175
Time: 1870000 | a = 150, b = 192, acc_in =              1437175, acc_out =              1465975
Time: 1890000 | a =  38, b = 182, acc_in =              1465975, acc_out =              1472891
Time: 1910000 | a = 125, b = 220, acc_in =              1472891, acc_out =              1500391
Time: 1930000 | a = 134, b = 120, acc_in =              1500391, acc_out =              1516471
Time: 1950000 | a = 126, b = 219, acc_in =              1516471, acc_out =              1544065
Time: 1970000 | a = 207, b = 121, acc_in =              1544065, acc_out =              1569112
Time: 1990000 | a = 250, b =  97, acc_in =              1569112, acc_out =              1593362
Time: 2010000 | a =  23, b = 161, acc_in =              1593362, acc_out =              1597065
Time: 2030000 | a = 134, b =  80, acc_in =              1597065, acc_out =              1607785
Time: 2050000 | a = 245, b =  53, acc_in =              1607785, acc_out =              1620770
Time: 2070000 | a =  41, b = 193, acc_in =              1620770, acc_out =              1628683
Time: 2090000 | a = 197, b = 152, acc_in =              1628683, acc_out =              1658627
Time: 2110000 | a =  75, b = 115, acc_in =              1658627, acc_out =              1667252
Time: 2130000 | a = 236, b = 138, acc_in =              1667252, acc_out =              1699820
Time: 2150000 | a =  78, b = 168, acc_in =              1699820, acc_out =              1712924
Time: 2170000 | a = 169, b = 161, acc_in =              1712924, acc_out =              1740133
Time: 2190000 | a =  14, b = 230, acc_in =              1740133, acc_out =              1743353
Time: 2210000 | a = 159, b =  42, acc_in =              1743353, acc_out =              1750031
Time: 2230000 | a =  42, b = 141, acc_in =              1750031, acc_out =              1755953
Time: 2250000 | a = 158, b =  56, acc_in =              1755953, acc_out =              1764801
Time: 2270000 | a = 121, b = 200, acc_in =              1764801, acc_out =              1789001
Time: 2290000 | a = 202, b =  19, acc_in =              1789001, acc_out =              1792839
Time: 2310000 | a = 107, b = 199, acc_in =              1792839, acc_out =              1814132
Time: 2330000 | a = 182, b = 186, acc_in =              1814132, acc_out =              1847984
Time: 2350000 | a = 196, b = 185, acc_in =              1847984, acc_out =              1884244
Time: 2370000 | a = 146, b = 180, acc_in =              1884244, acc_out =              1910524
Time: 2390000 | a = 127, b = 134, acc_in =              1910524, acc_out =              1927542
Time: 2410000 | a = 250, b = 242, acc_in =              1927542, acc_out =              1988042
Time: 2430000 | a =  50, b = 189, acc_in =              1988042, acc_out =              1997492
Time: 2450000 | a = 132, b = 228, acc_in =              1997492, acc_out =              2027588
Time: 2470000 | a = 202, b = 169, acc_in =              2027588, acc_out =              2061726
Time: 2490000 | a = 161, b = 142, acc_in =              2061726, acc_out =              2084588
Time: 2510000 | a = 251, b =  11, acc_in =              2084588, acc_out =              2087349
Time: 2530000 | a = 239, b = 201, acc_in =              2087349, acc_out =              2135388
Time: 2550000 | a =  54, b = 117, acc_in =              2135388, acc_out =              2141706
Time: 2570000 | a = 143, b = 107, acc_in =              2141706, acc_out =              2157007
Time: 2590000 | a = 136, b = 174, acc_in =              2157007, acc_out =              2180671
Time: 2610000 | a = 155, b = 146, acc_in =              2180671, acc_out =              2203301
Time: 2630000 | a =  40, b =  45, acc_in =              2203301, acc_out =              2205101
Time: 2650000 | a =  75, b = 194, acc_in =              2205101, acc_out =              2219651
Time: 2670000 | a =  30, b =  13, acc_in =              2219651, acc_out =              2220041
Time: 2690000 | a = 236, b =  24, acc_in =              2220041, acc_out =              2225705
Time: 2710000 | a = 209, b = 134, acc_in =              2225705, acc_out =              2253711
Time: 2730000 | a =  65, b =  59, acc_in =              2253711, acc_out =              2257546
Time: 2750000 | a = 216, b =  83, acc_in =              2257546, acc_out =              2275474
Time: 2770000 | a =  86, b =  91, acc_in =              2275474, acc_out =              2283300
Time: 2790000 | a = 226, b =   4, acc_in =              2283300, acc_out =              2284204
Time: 2810000 | a = 115, b = 216, acc_in =              2284204, acc_out =              2309044
Time: 2830000 | a =  18, b = 184, acc_in =              2309044, acc_out =              2312356
Time: 2850000 | a =  57, b = 229, acc_in =              2312356, acc_out =              2325409
Time: 2870000 | a = 161, b =  43, acc_in =              2325409, acc_out =              2332332
Time: 2890000 | a = 129, b = 200, acc_in =              2332332, acc_out =              2358132
Time: 2910000 | a =  39, b = 161, acc_in =              2358132, acc_out =              2364411
Time: 2930000 | a =  31, b =   4, acc_in =              2364411, acc_out =              2364535
Time: 2950000 | a =  88, b = 150, acc_in =              2364535, acc_out =              2377735
Time: 2970000 | a =  20, b =  18, acc_in =              2377735, acc_out =              2378095
Time: 2990000 | a = 150, b = 177, acc_in =              2378095, acc_out =              2404645
Time: 3010000 | a =  85, b = 237, acc_in =              2404645, acc_out =              2424790
Time: 3030000 | a =  43, b = 245, acc_in =              2424790, acc_out =              2435325
Time: 3050000 | a = 173, b =  39, acc_in =              2435325, acc_out =              2442072
Time: 3070000 | a = 132, b = 167, acc_in =              2442072, acc_out =              2464116
Time: 3090000 | a = 231, b = 185, acc_in =              2464116, acc_out =              2506851
Time: 3110000 | a =  73, b = 219, acc_in =              2506851, acc_out =              2522838
Time: 3130000 | a = 201, b =  81, acc_in =              2522838, acc_out =              2539119
Time: 3150000 | a = 161, b =  42, acc_in =              2539119, acc_out =              2545881
Time: 3170000 | a = 250, b =  69, acc_in =              2545881, acc_out =              2563131
Time: 3190000 | a = 131, b = 124, acc_in =              2563131, acc_out =              2579375
Time: 3210000 | a = 114, b = 254, acc_in =              2579375, acc_out =              2608331
Time: 3230000 | a = 104, b = 111, acc_in =              2608331, acc_out =              2619875
Time: 3250000 | a = 134, b = 240, acc_in =              2619875, acc_out =              2652035
Time: 3270000 | a =  56, b =  64, acc_in =              2652035, acc_out =              2655619
Time: 3290000 | a =  40, b = 246, acc_in =              2655619, acc_out =              2665459
Time: 3310000 | a = 197, b = 192, acc_in =              2665459, acc_out =              2703283
Time: 3330000 | a = 116, b =  57, acc_in =              2703283, acc_out =              2709895
Time: 3350000 | a = 176, b =  60, acc_in =              2709895, acc_out =              2720455
Time: 3370000 | a =  42, b =  98, acc_in =              2720455, acc_out =              2724571
Time: 3390000 | a =  21, b = 225, acc_in =              2724571, acc_out =              2729296
Time: 3410000 | a =  23, b =  67, acc_in =              2729296, acc_out =              2730837
Time: 3430000 | a = 201, b = 134, acc_in =              2730837, acc_out =              2757771
Time: 3450000 | a =  37, b = 193, acc_in =              2757771, acc_out =              2764912
Time: 3470000 | a = 141, b =  90, acc_in =              2764912, acc_out =              2777602
Time: 3490000 | a =   7, b =  44, acc_in =              2777602, acc_out =              2777910
Time: 3510000 | a =  12, b = 113, acc_in =              2777910, acc_out =              2779266
Time: 3530000 | a =  59, b = 182, acc_in =              2779266, acc_out =              2790004
Time: 3550000 | a = 247, b = 158, acc_in =              2790004, acc_out =              2829030
Time: 3570000 | a =  92, b =  85, acc_in =              2829030, acc_out =              2836850
Time: 3590000 | a =  32, b = 160, acc_in =              2836850, acc_out =              2841970
Time: 3610000 | a = 114, b = 180, acc_in =              2841970, acc_out =              2862490
Time: 3630000 | a = 221, b =  13, acc_in =              2862490, acc_out =              2865363
Time: 3650000 | a =  75, b = 121, acc_in =              2865363, acc_out =              2874438
Time: 3670000 | a = 158, b = 253, acc_in =              2874438, acc_out =              2914412
Time: 3690000 | a = 123, b = 143, acc_in =              2914412, acc_out =              2932001
Time: 3710000 | a =   3, b = 227, acc_in =              2932001, acc_out =              2932682
Time: 3730000 | a =  29, b = 177, acc_in =              2932682, acc_out =              2937815
Time: 3750000 | a =  68, b = 149, acc_in =              2937815, acc_out =              2947947
Time: 3770000 | a = 224, b = 237, acc_in =              2947947, acc_out =              3001035
Time: 3790000 | a =  82, b = 248, acc_in =              3001035, acc_out =              3021371
Time: 3810000 | a = 141, b =  82, acc_in =              3021371, acc_out =              3032933
Time: 3830000 | a = 132, b =  70, acc_in =              3032933, acc_out =              3042173
Time: 3850000 | a = 140, b = 144, acc_in =              3042173, acc_out =              3062333
Time: 3870000 | a =  23, b = 106, acc_in =              3062333, acc_out =              3064771
Time: 3890000 | a = 132, b = 170, acc_in =              3064771, acc_out =              3087211
Time: 3910000 | a = 124, b =  96, acc_in =              3087211, acc_out =              3099115
Time: 3930000 | a = 186, b = 139, acc_in =              3099115, acc_out =              3124969
Time: 3950000 | a = 166, b =  37, acc_in =              3124969, acc_out =              3131111
Time: 3970000 | a =  50, b = 162, acc_in =              3131111, acc_out =              3139211
Time: 3990000 | a =  73, b =  20, acc_in =              3139211, acc_out =              3140671
Time: 4010000 | a =  61, b =  75, acc_in =              3140671, acc_out =              3145246
Time: 4030000 | a =  92, b =  71, acc_in =              3145246, acc_out =              3151778
Time: 4050000 | a = 134, b =  57, acc_in =              3151778, acc_out =              3159416
Time: 4070000 | a = 180, b = 208, acc_in =              3159416, acc_out =              3196856
Time: 4090000 | a =  44, b = 140, acc_in =              3196856, acc_out =              3203016
Time: 4110000 | a =   7, b = 106, acc_in =              3203016, acc_out =              3203758
Time: 4130000 | a =  17, b = 232, acc_in =              3203758, acc_out =              3207702
Time: 4150000 | a =  75, b = 115, acc_in =              3207702, acc_out =              3216327
Time: 4170000 | a = 236, b =  35, acc_in =              3216327, acc_out =              3224587
Time: 4190000 | a = 164, b = 201, acc_in =              3224587, acc_out =              3257551
Time: 4210000 | a =  57, b = 223, acc_in =              3257551, acc_out =              3270262
Time: 4230000 | a = 212, b = 103, acc_in =              3270262, acc_out =              3292098
Time: 4250000 | a = 157, b = 176, acc_in =              3292098, acc_out =              3319730
Time: 4270000 | a = 130, b =  73, acc_in =              3319730, acc_out =              3329220
Time: 4290000 | a = 217, b =  32, acc_in =              3329220, acc_out =              3336164
Time: 4310000 | a =  28, b = 147, acc_in =              3336164, acc_out =              3340280
Time: 4330000 | a = 227, b =  42, acc_in =              3340280, acc_out =              3349814
Time: 4350000 | a = 200, b =  93, acc_in =              3349814, acc_out =              3368414
Time: 4370000 | a =  58, b = 132, acc_in =              3368414, acc_out =              3376070
Time: 4390000 | a =  43, b =  57, acc_in =              3376070, acc_out =              3378521
Time: 4410000 | a =  18, b =  82, acc_in =              3378521, acc_out =              3379997
Time: 4430000 | a =  89, b = 208, acc_in =              3379997, acc_out =              3398509
Time: 4450000 | a = 110, b = 151, acc_in =              3398509, acc_out =              3415119
Time: 4470000 | a = 219, b = 166, acc_in =              3415119, acc_out =              3451473
Time: 4490000 | a = 187, b =   0, acc_in =              3451473, acc_out =              3451473
Time: 4510000 | a =  15, b = 105, acc_in =              3451473, acc_out =              3453048
Time: 4530000 | a =  12, b =  89, acc_in =              3453048, acc_out =              3454116
Time: 4550000 | a = 197, b = 207, acc_in =              3454116, acc_out =              3494895
Time: 4570000 | a = 144, b =  81, acc_in =              3494895, acc_out =              3506559
Time: 4590000 | a = 105, b = 119, acc_in =              3506559, acc_out =              3519054
Time: 4610000 | a =  74, b = 216, acc_in =              3519054, acc_out =              3535038
Time: 4630000 | a = 155, b = 196, acc_in =              3535038, acc_out =              3565418
Time: 4650000 | a = 184, b = 183, acc_in =              3565418, acc_out =              3599090
Time: 4670000 | a = 134, b =  48, acc_in =              3599090, acc_out =              3605522
Time: 4690000 | a = 119, b = 181, acc_in =              3605522, acc_out =              3627061
Time: 4710000 | a = 212, b =   7, acc_in =              3627061, acc_out =              3628545
Time: 4730000 | a = 118, b = 233, acc_in =              3628545, acc_out =              3656039
Time: 4750000 | a = 139, b =   1, acc_in =              3656039, acc_out =              3656178
Time: 4770000 | a = 219, b = 128, acc_in =              3656178, acc_out =              3684210
Time: 4790000 | a = 194, b = 197, acc_in =              3684210, acc_out =              3722428
Time: 4810000 | a =  48, b = 175, acc_in =              3722428, acc_out =              3730828
Time: 4830000 | a = 102, b = 175, acc_in =              3730828, acc_out =              3748678
Time: 4850000 | a = 233, b = 248, acc_in =              3748678, acc_out =              3806462
Time: 4870000 | a =   6, b = 239, acc_in =              3806462, acc_out =              3807896
Time: 4890000 | a = 225, b = 149, acc_in =              3807896, acc_out =              3841421
Time: 4910000 | a = 238, b =  96, acc_in =              3841421, acc_out =              3864269
Time: 4930000 | a = 229, b =  40, acc_in =              3864269, acc_out =              3873429
Time: 4950000 | a = 100, b =  41, acc_in =              3873429, acc_out =              3877529
Time: 4970000 | a = 225, b = 119, acc_in =              3877529, acc_out =              3904304
Time: 4990000 | a = 110, b = 129, acc_in =              3904304, acc_out =              3918494
Time: 5010000 | a = 213, b = 104, acc_in =              3918494, acc_out =              3940646
Time: 5030000 | a = 240, b = 170, acc_in =              3940646, acc_out =              3981446
Time: 5050000 | a =  15, b = 241, acc_in =              3981446, acc_out =              3985061
Time: 5070000 | a = 125, b = 142, acc_in =              3985061, acc_out =              4002811
Time: 5090000 | a = 226, b =  60, acc_in =              4002811, acc_out =              4016371
Time: 5110000 | a = 169, b = 239, acc_in =              4016371, acc_out =              4056762
Time: 5130000 | a =  91, b = 175, acc_in =              4056762, acc_out =              4072687
Time: 5150000 | a =  74, b = 185, acc_in =              4072687, acc_out =              4086377
Time: 5170000 | a =  19, b =  19, acc_in =              4086377, acc_out =              4086738
Time: 5190000 | a = 101, b =  81, acc_in =              4086738, acc_out =              4094919
Time: 5210000 | a = 183, b = 153, acc_in =              4094919, acc_out =              4122918
Time: 5230000 | a =  58, b = 113, acc_in =              4122918, acc_out =              4129472
Time: 5250000 | a =  98, b = 228, acc_in =              4129472, acc_out =              4151816
Time: 5270000 | a =  42, b = 125, acc_in =              4151816, acc_out =              4157066
Time: 5290000 | a =  89, b = 229, acc_in =              4157066, acc_out =              4177447
Time: 5310000 | a = 237, b = 201, acc_in =              4177447, acc_out =              4225084
Time: 5330000 | a =  65, b = 175, acc_in =              4225084, acc_out =              4236459
Time: 5350000 | a = 219, b = 205, acc_in =              4236459, acc_out =              4281354
Time: 5370000 | a = 112, b =   6, acc_in =              4281354, acc_out =              4282026
Time: 5390000 | a = 162, b = 189, acc_in =              4282026, acc_out =              4312644
Time: 5410000 | a = 106, b = 220, acc_in =              4312644, acc_out =              4335964
Time: 5430000 | a =  80, b = 123, acc_in =              4335964, acc_out =              4345804
Time: 5450000 | a =  37, b = 120, acc_in =              4345804, acc_out =              4350244
Time: 5470000 | a = 246, b =  92, acc_in =              4350244, acc_out =              4372876
Time: 5490000 | a =  35, b = 121, acc_in =              4372876, acc_out =              4377111
Time: 5510000 | a = 200, b = 187, acc_in =              4377111, acc_out =              4414511
Time: 5530000 | a =  14, b = 115, acc_in =              4414511, acc_out =              4416121
Time: 5550000 | a =  12, b = 206, acc_in =              4416121, acc_out =              4418593
Time: 5570000 | a = 212, b =  89, acc_in =              4418593, acc_out =              4437461
Time: 5590000 | a = 185, b = 179, acc_in =              4437461, acc_out =              4470576
Time: 5610000 | a = 244, b = 117, acc_in =              4470576, acc_out =              4499124
Time: 5630000 | a =  12, b =  57, acc_in =              4499124, acc_out =              4499808
Time: 5650000 | a =   2, b =  21, acc_in =              4499808, acc_out =              4499850
Time: 5670000 | a =   5, b =  78, acc_in =              4499850, acc_out =              4500240
Time: 5690000 | a =   2, b = 184, acc_in =              4500240, acc_out =              4500608
Time: 5710000 | a =   8, b = 141, acc_in =              4500608, acc_out =              4501736
Time: 5730000 | a = 175, b = 232, acc_in =              4501736, acc_out =              4542336
Time: 5750000 | a = 144, b = 245, acc_in =              4542336, acc_out =              4577616
Time: 5770000 | a =  76, b = 123, acc_in =              4577616, acc_out =              4586964
Time: 5790000 | a =  64, b =  37, acc_in =              4586964, acc_out =              4589332
Time: 5810000 | a =  13, b = 112, acc_in =              4589332, acc_out =              4590788
Time: 5830000 | a =  45, b =  41, acc_in =              4590788, acc_out =              4592633
Time: 5850000 | a = 188, b =  48, acc_in =              4592633, acc_out =              4601657
Time: 5870000 | a = 192, b =  80, acc_in =              4601657, acc_out =              4617017
Time: 5890000 | a = 161, b =  77, acc_in =              4617017, acc_out =              4629414
Time: 5910000 | a = 245, b = 245, acc_in =              4629414, acc_out =              4689439
Time: 5930000 | a =  93, b = 148, acc_in =              4689439, acc_out =              4703203
Time: 5950000 | a = 106, b = 188, acc_in =              4703203, acc_out =              4723131
Time: 5970000 | a = 184, b = 158, acc_in =              4723131, acc_out =              4752203
Time: 5990000 | a = 250, b =  70, acc_in =              4752203, acc_out =              4769703
Time: 6010000 | a =   7, b = 147, acc_in =              4769703, acc_out =              4770732
Time: 6030000 | a =  85, b = 183, acc_in =              4770732, acc_out =              4786287
Time: 6050000 | a =  69, b =  99, acc_in =              4786287, acc_out =              4793118
Time: 6070000 | a =  89, b =  38, acc_in =              4793118, acc_out =              4796500
Time: 6090000 | a = 104, b =  30, acc_in =              4796500, acc_out =              4799620
Time: 6110000 | a = 144, b =  90, acc_in =              4799620, acc_out =              4812580
Time: 6130000 | a =  28, b = 185, acc_in =              4812580, acc_out =              4817760
Time: 6150000 | a = 171, b = 208, acc_in =              4817760, acc_out =              4853328
Time: 6170000 | a = 111, b = 216, acc_in =              4853328, acc_out =              4877304
Time: 6190000 | a =  69, b = 141, acc_in =              4877304, acc_out =              4887033
Time: 6210000 | a = 139, b = 252, acc_in =              4887033, acc_out =              4922061
Time: 6230000 | a = 220, b = 164, acc_in =              4922061, acc_out =              4958141
Time: 6250000 | a =  25, b = 165, acc_in =              4958141, acc_out =              4962266
Time: 6270000 | a =  62, b = 243, acc_in =              4962266, acc_out =              4977332
Time: 6290000 | a =  88, b = 196, acc_in =              4977332, acc_out =              4994580
Time: 6310000 | a =  92, b =   6, acc_in =              4994580, acc_out =              4995132
Time: 6330000 | a = 154, b =  24, acc_in =              4995132, acc_out =              4998828
Time: 6350000 | a = 197, b = 170, acc_in =              4998828, acc_out =              5032318
Time: 6370000 | a =  26, b = 195, acc_in =              5032318, acc_out =              5037388
Time: 6390000 | a = 178, b =  12, acc_in =              5037388, acc_out =              5039524
Time: 6410000 | a = 233, b = 195, acc_in =              5039524, acc_out =              5084959
Time: 6430000 | a = 235, b = 248, acc_in =              5084959, acc_out =              5143239
Time: 6450000 | a = 242, b = 137, acc_in =              5143239, acc_out =              5176393
Time: 6470000 | a = 111, b =  27, acc_in =              5176393, acc_out =              5179390
Time: 6490000 | a = 173, b = 104, acc_in =              5179390, acc_out =              5197382
Time: 6510000 | a =  37, b = 207, acc_in =              5197382, acc_out =              5205041
Time: 6530000 | a = 171, b =  27, acc_in =              5205041, acc_out =              5209658
Time: 6550000 | a = 128, b =  93, acc_in =              5209658, acc_out =              5221562
Time: 6570000 | a = 130, b =   4, acc_in =              5221562, acc_out =              5222082
Time: 6590000 | a =  87, b =  54, acc_in =              5222082, acc_out =              5226780
Time: 6610000 | a =  50, b = 121, acc_in =              5226780, acc_out =              5232830
Time: 6630000 | a = 228, b =  22, acc_in =              5232830, acc_out =              5237846
Time: 6650000 | a = 170, b = 192, acc_in =              5237846, acc_out =              5270486
Time: 6670000 | a =  46, b = 140, acc_in =              5270486, acc_out =              5276926
Time: 6690000 | a = 113, b = 251, acc_in =              5276926, acc_out =              5305289
Time: 6710000 | a = 188, b = 220, acc_in =              5305289, acc_out =              5346649
Time: 6730000 | a =  23, b = 193, acc_in =              5346649, acc_out =              5351088
Time: 6750000 | a = 235, b = 181, acc_in =              5351088, acc_out =              5393623
Time: 6770000 | a = 137, b = 143, acc_in =              5393623, acc_out =              5413214
Time: 6790000 | a = 191, b = 176, acc_in =              5413214, acc_out =              5446830
Time: 6810000 | a = 211, b = 214, acc_in =              5446830, acc_out =              5491984
Time: 6830000 | a = 130, b =  26, acc_in =              5491984, acc_out =              5495364
Time: 6850000 | a = 113, b = 215, acc_in =              5495364, acc_out =              5519659
Time: 6870000 | a =  14, b = 241, acc_in =              5519659, acc_out =              5523033
Time: 6890000 | a = 205, b =   5, acc_in =              5523033, acc_out =              5524058
Time: 6910000 | a =  28, b = 152, acc_in =              5524058, acc_out =              5528314
Time: 6930000 | a = 236, b =  42, acc_in =              5528314, acc_out =              5538226
Time: 6950000 | a = 101, b =  55, acc_in =              5538226, acc_out =              5543781
Time: 6970000 | a =   3, b = 254, acc_in =              5543781, acc_out =              5544543
Time: 6990000 | a = 253, b =  62, acc_in =              5544543, acc_out =              5560229
Time: 7010000 | a = 232, b = 116, acc_in =              5560229, acc_out =              5587141
Time: 7030000 | a = 176, b =   6, acc_in =              5587141, acc_out =              5588197
Time: 7050000 | a =  18, b = 104, acc_in =              5588197, acc_out =              5590069
Time: 7070000 | a = 197, b = 254, acc_in =              5590069, acc_out =              5640107
Time: 7090000 | a =  54, b = 243, acc_in =              5640107, acc_out =              5653229
Time: 7110000 | a = 251, b = 107, acc_in =              5653229, acc_out =              5680086
Time: 7130000 | a =  23, b =  15, acc_in =              5680086, acc_out =              5680431
Time: 7150000 | a =  20, b =  42, acc_in =              5680431, acc_out =              5681271
Time: 7170000 | a = 166, b = 212, acc_in =              5681271, acc_out =              5716463
Time: 7190000 | a = 203, b = 107, acc_in =              5716463, acc_out =              5738184
Time: 7210000 | a =   4, b = 244, acc_in =              5738184, acc_out =              5739160
Time: 7230000 | a = 141, b = 225, acc_in =              5739160, acc_out =              5770885
Time: 7250000 | a = 133, b = 185, acc_in =              5770885, acc_out =              5795490
Time: 7270000 | a = 201, b =  96, acc_in =              5795490, acc_out =              5814786
Time: 7290000 | a =  70, b =  60, acc_in =              5814786, acc_out =              5818986
Time: 7310000 | a =  55, b =  88, acc_in =              5818986, acc_out =              5823826
Time: 7330000 | a = 115, b =  14, acc_in =              5823826, acc_out =              5825436
Time: 7350000 | a = 220, b =  48, acc_in =              5825436, acc_out =              5835996
Time: 7370000 | a = 208, b =   0, acc_in =              5835996, acc_out =              5835996
Time: 7390000 | a =  67, b = 248, acc_in =              5835996, acc_out =              5852612
Time: 7410000 | a = 161, b =  83, acc_in =              5852612, acc_out =              5865975
Time: 7430000 | a = 152, b =  95, acc_in =              5865975, acc_out =              5880415
Time: 7450000 | a = 135, b = 250, acc_in =              5880415, acc_out =              5914165
Time: 7470000 | a =  45, b = 112, acc_in =              5914165, acc_out =              5919205
Time: 7490000 | a = 107, b =  49, acc_in =              5919205, acc_out =              5924448
Time: 7510000 | a =  18, b =  12, acc_in =              5924448, acc_out =              5924664
Time: 7530000 | a =  13, b =  21, acc_in =              5924664, acc_out =              5924937
Time: 7550000 | a =  64, b = 148, acc_in =              5924937, acc_out =              5934409
Time: 7570000 | a =  84, b = 128, acc_in =              5934409, acc_out =              5945161
Time: 7590000 | a =  19, b = 195, acc_in =              5945161, acc_out =              5948866
Time: 7610000 | a = 237, b = 220, acc_in =              5948866, acc_out =              6001006
Time: 7630000 | a = 120, b =  39, acc_in =              6001006, acc_out =              6005686
Time: 7650000 | a =  95, b =  35, acc_in =              6005686, acc_out =              6009011
Time: 7670000 | a = 171, b =  56, acc_in =              6009011, acc_out =              6018587
Time: 7690000 | a =  34, b = 201, acc_in =              6018587, acc_out =              6025421
Time: 7710000 | a = 199, b = 130, acc_in =              6025421, acc_out =              6051291
Time: 7730000 | a = 206, b = 199, acc_in =              6051291, acc_out =              6092285
